…
存在割合は0%と情報粗密行列の状態だった。





[containsverbatim]
  ０例も把握できる良いデータ構造の利用
    FBXアナフィラキシーショック
        


> getYobsData(code = "FBX", pt = "アナフィラキシーショック")

# A tibble: 96 x 7
   YEARMON  YOBS ICSRS  MASS   CODE                       PT  BETA
    <fctr> <dbl> <dbl> <int> <fctr>                   <fctr> <int>
 1 2009_08     0     0     2    FBX アナフィラキシーショック   640
 2 2009_09     0     0     2    FBX アナフィラキシーショック   640
 3 2009_10     0     0     2    FBX アナフィラキシーショック   640
 4 2009_11     0     0     2    FBX アナフィラキシーショック   640
 5 2009_12     0     0     2    FBX アナフィラキシーショック   640
 6 2010_01     0     0     2    FBX アナフィラキシーショック   640
 7 2010_02     0     0     2    FBX アナフィラキシーショック   640
 8 2010_03     0     0     2    FBX アナフィラキシーショック   640
 9 2010_04     0     0     2    FBX アナフィラキシーショック   640
10 2010_05     0     0     2    FBX アナフィラキシーショック   640
# ... with 86 more rows
…
ポアソン分布に従う事象は、母数，期待値、分散が等しいことが要請される。

 


  これを実データで確認し、利用する。

FMXA の薬疹報告を取り上げる。




> (dat <- getYobsData(code = "FMXA", pt = "薬疹") 

# A tibble: 96 x 2
   YEARMON  YOBS
    <fctr> <dbl>
 1 2009_08     2
 2 2009_09     0
 3 2009_10     1
 4 2009_11     0
 5 2009_12     0
 6 2010_01     1
 7 2010_02     0
 8 2010_03     0
 9 2010_04     1
10 2010_05     0
# ... with 86 more rows
…
